{
    "<package>": [ "list of lintian error keys" ],
    "all": [ "out-of-date-standards-version",
             "ancient-standards-version",
             "maintainer-upload-has-incorrect-version-number",
	     "latest-debian-changelog-entry-without-new-version",
             "binary-without-manpage",
             "hardening-no-fortify-functions",
             "setuid-binary",
             "package-has-long-file-name",
             "icon-size-and-directory-name-mismatch",
             "wrong-name-for-upstream-changelog",
             "dev-pkg-without-shlib-symlink",
             "embedded-javascript-library",
             "extra-license-file",
             "data.tar.xz-member-without-dpkg-pre-depends",
             "binary-nmu-debian-revision-in-source",
             "binary-nmu-uses-old-version-style",
             "syntax-error-in-dep5-copyright",
             "library-not-linked-against-libc",
             "script-with-language-extension",
             "newer-standards-version",
             "bad-distribution-in-changes-file",
             "invalid-arch-string-in-source-relation ppc64el",
             "latest-debian-changelog-entry-without-new-date",
             "missing-dependency-on-libc",
             "no-human-maintainers" ],
    "kde4libs": [ "script-not-executable usr/share/kde4/apps/kconf_update/kcookiescfg.pl" ],
    "kdoctools": [ "manpage-has-bad-whatis-entry" ],
    "kdewebdev": [ "package-name-doesnt-match-sonames" ],
    "kdepim-runtime": [ "image-file-in-usr-lib",
                        "package-name-doesnt-match-sonames",
                        "executable-not-elf-or-script" ],
    "kanagram": [ "package-name-doesnt-match-sonames" ],
    "kactivities": [ "dbg-package-missing-depends" ],
    "kdepim": [ "image-file-in-usr-lib",
                "korganizer: package-name-doesnt-match-sonames", 
                "executable-not-elf-or-script usr/share/autostart/korgac.desktop", 
                "executable-not-elf-or-script usr/share/autostart/kalarm.autostart.desktop",
                "kleopatra: package-name-doesnt-match-sonames",
                "kmail: package-name-doesnt-match-sonames",
                "knotes: package-name-doesnt-match-sonames"
              ],
    "kgoldrunner": [ "unusual-interpreter",
                     "script-not-executable" ],
    "khangman": [ "package-name-doesnt-match-sonames" ],
    "kolf": [ "package-name-doesnt-match-sonames",
              "non-dev-pkg-with-shlib-symlink" ],
    "nepomuk-core": [ "nepomuk-core-runtime: package-name-doesnt-match-sonames",
                      "nepomuk-core-runtime: shlib-without-versioned-soname",
                      "nepomuk-core-runtime: postinst-must-call-ldconfig" ],
    "kde-workspace": [ "kdm: manpage-has-errors-from-man",
                       "kde-style-oxygen: package-name-doesnt-match-sonames",
                       "kde-workspace-bin: package-name-doesnt-match-sonames",
                       "libkwinglutils1abi1: symbols-file-contains-debian-revision",
                       "libkwineffects1abi4: symbols-file-contains-debian-revision"
                     ],
    "kde-baseapps": [ "kfind: desktop-entry-lacks-main-category",
                      "konqueror: desktop-entry-lacks-main-category",
                      "libkonq5-templates: script-not-executable usr/share/templates/.source/Program.desktop",
                      "libkonq5-templates: unusual-interpreter usr/share/templates/.source/Program.desktop" 
                    ],
    "kpat": [ "package-name-doesnt-match-sonames",
              "shlib-without-versioned-soname" ],
    "ksirk": [ "package-name-doesnt-match-sonames",
               "non-dev-pkg-with-shlib-symlink" ],
    "palapeli": [ "package-name-doesnt-match-sonames" ],
    "print-manager": [ "package-name-doesnt-match-sonames",
                       "print-manager: shlib-without-versioned-soname",
                       "print-manager: postinst-must-call-ldconfig" ],
    "rocs": [ "package-name-doesnt-match-sonames", "missing-field-in-dep5-copyright" ],
    "superkaramba": [ "non-dev-pkg-with-shlib-symlink", 
                      "superkaramba source: source-is-missing examples/globalMouse/xcursor.so" ],
    "kopete": [ "package-name-doesnt-match-sonames",
                "script-with-language-extension" ],
    "nepomuk-widgets": [ "missing-field-in-dep5-copyright" ],
    "kde-dev-scripts": [ "script-with-language-extension",
                         "shell-script-fails-syntax-check usr/bin/svnversions",
                         "shell-script-fails-syntax-check usr/bin/package_crystalsvg"
                       ],
    "lokalize": [ "executable-not-elf-or-script" ],
    "krfb": [ "package-name-doesnt-match-sonames" ],
    "kompare": [ "package-name-doesnt-match-sonames" ],
    "libkdcraw": [ "libkdcraw22: embedded-library" ],
    "kdepimlibs": [ "kdepimlibs5-dev: missing-dependency-on-libc", "shared-lib-without-dependency-information" ],
    "kppp": [ "non-standard-executable-perm usr/bin/kppp", "debian-news-entry-has-unknown-version" ],
    "ksirk": [ "license-problem-non-free-RFC" ],
    "perlqt": [ "debug-file-with-no-debug-symbols" ],
    "kdeplasma-addons": [ "debug-file-with-no-debug-symbols" ],
    "kdeclarative": [ "symbols-declares-dependency-on-other-package" ],
    "khtml": [ "shared-lib-without-dependency-information" ],
    "krunner": [ "symbols-declares-dependency-on-other-package" ],
    "solid": [ "symbols-declares-dependency-on-other-package" ],
    "kfilemetadata-kf5": [ "symbols-declares-dependency-on-other-package" ],
    "khelpcenter": [ "desktop-entry-lacks-main-category", "postinst-must-call-ldconfig", "package-name-doesnt-match-sonames", "shlib-without-versioned-soname" ],
    "kde-cli-tools": [ "package-name-doesnt-match-sonames", "postinst-must-call-ldconfig", "shlib-without-versioned-soname" ],
    "kmenuedit": [ "package-name-doesnt-match-sonames", "postinst-must-call-ldconfig", "shlib-without-versioned-soname" ],
    "ksysguard": [ "package-name-doesnt-match-sonames", "postinst-must-call-ldconfig", "shlib-without-versioned-soname", "dep5-copyright-license-name-not-unique", "missing-license-paragraph-in-dep5-copyright" ],
    "kwin": [ "package-name-doesnt-match-sonames", "postinst-must-call-ldconfig", "shlib-without-versioned-soname" ],
    "plasma-desktop": [ "package-name-doesnt-match-sonames", "postinst-must-call-ldconfig", "shlib-without-versioned-soname" ],
    "powerdevil": [ "package-name-doesnt-match-sonames" ],
    "systemsettings": [ "package-name-doesnt-match-sonames" ],
    "plasma-nm": [ "package-name-doesnt-match-sonames", "script-not-executable", "unusual-interpreter", "shlib-without-versioned-soname", "postinst-must-call-ldconfig" ],
    "plasma-workspace": [ "pkg-has-shlibs-control-file-but-no-actual-shared-libs", "shlib-without-versioned-soname", "script-not-executable", "package-name-doesnt-match-sonames"],
    "kate": [ "shared-lib-without-dependency-information", "debug-file-with-no-debug-symbols" ],
    "kinit": [ "shlib-without-versioned-soname", "postinst-must-call-ldconfig" ],
    "kded": [ "shlib-without-versioned-soname", "postinst-must-call-ldconfig" ],
    "oxygen-icons": [ "description-is-pkg-name" ],
    "konsole": [ "package-name-doesnt-match-sonames", "postinst-must-call-ldconfig" ],
    "kget": [ "source-is-missing" ],
    "plasma-mediacenter": [ "package-name-doesnt-match-sonames" ],
    "muon": [ "package-name-doesnt-match-sonames", "shlib-without-versioned-soname" ],
    "breeze": [ "not-binnmuable-any-depends-all" ],
    "oxygen": [ "package-name-doesnt-match-sonames" ]
}
